[gd_scene load_steps=2 format=2]

[ext_resource path="res://Sprites/video/open.webm" type="VideoStream" id=1]

[node name="Node2D" type="Control"]
__meta__ = {
"_edit_use_anchors_": false
}

[node name="VideoPlayer" type="VideoPlayer" parent="."]
margin_right = 1295.0
margin_bottom = 1035.0
stream = ExtResource( 1 )
autoplay = true
__meta__ = {
"_edit_use_anchors_": false
}
