[gd_resource type="Resource" load_steps=3 format=2]

[ext_resource path="res://Resources/characters/characterDb.gd" type="Script" id=1]
[ext_resource path="res://Resources/rarities/Uncommon.tres" type="Resource" id=2]

[resource]
script = ExtResource( 1 )
char_id = 2
char_name = "Expert Scout"
name_class = "assassin"
type = "uncommon"
url = "https://www.hunters.cryptoinveste.com.br/assets/images/items/sprites/assassin/uncommon/2"
body_char = {
"armor": "res://Sprites/assassin/uncommon/2/armor.png",
"beard": "",
"body": "res://Sprites/assassin/uncommon/2/body.png",
"cape": "",
"ear": "res://Sprites/assassin/uncommon/2/ear.png",
"earrings": "",
"eyebrows": "res://Sprites/assassin/uncommon/2/eyebrows.png",
"eyes": "res://Sprites/assassin/uncommon/2/eyes.png",
"hair": "",
"head": "res://Sprites/assassin/uncommon/2/head.png",
"helmet": "res://Sprites/assassin/uncommon/2/helmet.png",
"mouth": "res://Sprites/assassin/uncommon/2/mouth.png",
"shield": "res://Sprites/assassin/uncommon/2/shield.png",
"weapon": "res://Sprites/assassin/uncommon/2/weapon.png"
}
soucer_game_type = ExtResource( 2 )
