[gd_resource type="Resource" load_steps=3 format=2]

[ext_resource path="res://Resources/characters/characterDb.gd" type="Script" id=1]
[ext_resource path="res://Resources/rarities/Common.tres" type="Resource" id=2]

[resource]
script = ExtResource( 1 )
char_id = 1
char_name = "Beginner Thief"
name_class = "assassin"
type = "common"
url = "https://www.hunters.cryptoinveste.com.br/assets/images/items/sprites/assassin/common/1"
body_char = {
"armor": "res://Sprites/assassin/common/1/armor.png",
"beard": "res://Sprites/assassin/common/1/beard.png",
"body": "res://Sprites/assassin/common/1/body.png",
"cape": "",
"ear": "",
"earrings": "",
"eyebrows": "res://Sprites/assassin/common/1/eyebrows.png",
"eyes": "res://Sprites/assassin/common/1/eyes.png",
"hair": "res://Sprites/assassin/common/1/hair.png",
"head": "res://Sprites/assassin/common/1/head.png",
"helmet": "res://Sprites/assassin/common/1/helmet.png",
"mouth": "res://Sprites/assassin/common/1/mouth.png",
"shield": "res://Sprites/assassin/common/1/shield.png",
"weapon": "res://Sprites/assassin/common/1/weapon.png"
}
soucer_game_type = ExtResource( 2 )
