[gd_resource type="Resource" load_steps=2 format=2]

[ext_resource path="res://Resources/rarities/ItemRarity.gd" type="Script" id=1]

[resource]
script = ExtResource( 1 )
chance = 0.55
rarity_name = "common"
spec_multiplier = 1.0
ui_color = Color( 1, 1, 1, 1 )
