[gd_resource type="Resource" load_steps=3 format=2]

[ext_resource path="res://Resources/characters/characterDb.gd" type="Script" id=1]
[ext_resource path="res://Resources/rarities/Uncommon.tres" type="Resource" id=2]

[resource]
script = ExtResource( 1 )
char_id = 2
char_name = "Wizard Magician"
name_class = "mage"
type = "uncommon"
url = "https://www.hunters.cryptoinveste.com.br/assets/images/items/sprites/mage/uncommon/2"
body_char = {
"armor": "res://Sprites/mage/uncommon/2/armar.png",
"beard": "res://Sprites/mage/uncommon/2/beard.png",
"body": "res://Sprites/mage/uncommon/2/body.png",
"cape": "res://Sprites/mage/uncommon/2/cape.png",
"ear": "res://Sprites/mage/uncommon/2/ear.png",
"earrings": "",
"eyebrows": "res://Sprites/mage/uncommon/2/eyebrows.png",
"eyes": "res://Sprites/mage/uncommon/2/eyes.png",
"hair": "res://Sprites/mage/uncommon/2/hair.png",
"head": "res://Sprites/mage/uncommon/2/head.png",
"helmet": "",
"mouth": "res://Sprites/mage/uncommon/2/mouth.png",
"shield": "",
"weapon": ""
}
soucer_game_type = ExtResource( 2 )
