[gd_resource type="Resource" load_steps=3 format=2]

[ext_resource path="res://Resources/characters/characterDb.gd" type="Script" id=1]
[ext_resource path="res://Resources/rarities/Epic.tres" type="Resource" id=2]

[resource]
script = ExtResource( 1 )
char_id = 3
char_name = "Epic Necromancer"
name_class = "mage"
type = "epic"
url = "https://www.hunters.cryptoinveste.com.br/assets/images/items/sprites/mage/epic/3"
body_char = {
"armor": "res://Sprites/mage/epic/3/armor.png",
"beard": "",
"body": "res://Sprites/mage/epic/3/body.png",
"cape": "res://Sprites/mage/epic/3/cape.png",
"ear": "res://Sprites/mage/epic/3/ear.png",
"earrings": "",
"eyebrows": "res://Sprites/mage/epic/3/eyebrows.png",
"eyes": "res://Sprites/mage/epic/3/eyes.png",
"hair": "res://Sprites/mage/epic/3/hair.png",
"head": "res://Sprites/mage/epic/3/head.png",
"helmet": "res://Sprites/mage/epic/3/mouth.png",
"mouth": "res://Sprites/mage/epic/1/mouth.png",
"shield": "",
"weapon": "res://Sprites/mage/epic/3/weapon.png"
}
soucer_game_type = ExtResource( 2 )
