[gd_resource type="Resource" load_steps=3 format=2]

[ext_resource path="res://Resources/characters/characterDb.gd" type="Script" id=1]
[ext_resource path="res://Resources/rarities/Common.tres" type="Resource" id=2]

[resource]
script = ExtResource( 1 )
char_id = 2
char_name = "Scholars Aspirant"
name_class = "mage"
type = "common"
url = "https://www.hunters.cryptoinveste.com.br/assets/images/items/sprites/mage/common/2"
body_char = {
"armor": "res://Sprites/mage/common/2/armor.png",
"beard": "res://Sprites/mage/common/2/beard.png",
"body": "res://Sprites/mage/common/2/body.png",
"cape": "res://Sprites/mage/common/2/cape.png",
"ear": "res://Sprites/mage/common/2/ear.png",
"earrings": "",
"eyebrows": "res://Sprites/mage/common/2/eyebrows.png",
"eyes": "res://Sprites/mage/common/2/eyes.png",
"hair": "res://Sprites/mage/common/2/hair.png",
"head": "res://Sprites/mage/common/2/head.png",
"helmet": "res://Sprites/mage/common/2/helmet.png",
"mouth": "res://Sprites/mage/common/2/mouth.png",
"shield": "",
"weapon": "res://Sprites/mage/common/2/weapon.png"
}
soucer_game_type = ExtResource( 2 )
