[gd_resource type="Resource" load_steps=3 format=2]

[ext_resource path="res://Resources/characters/characterDb.gd" type="Script" id=1]
[ext_resource path="res://Resources/rarities/Common.tres" type="Resource" id=2]

[resource]
script = ExtResource( 1 )
char_id = 3
char_name = "Iron Soldier"
name_class = "warrior"
type = "common"
url = "https://www.hunters.cryptoinveste.com.br/assets/images/items/sprites/warrior/common/3"
body_char = {
"armor": "res://Sprites/warrior/common/3/armor.png",
"beard": "",
"body": "res://Sprites/warrior/common/3/body.png",
"cape": "res://Sprites/warrior/common/3/cape.png",
"ear": "",
"earrings": "",
"eyebrows": "",
"eyes": "res://Sprites/warrior/common/3/eyes.png",
"hair": "",
"head": "res://Sprites/warrior/common/3/head.png",
"helmet": "res://Sprites/warrior/common/3/helmet.png",
"mouth": "",
"shield": "res://Sprites/warrior/common/3/shield.png",
"weapon": "res://Sprites/warrior/common/3/weapon.png"
}
soucer_game_type = ExtResource( 2 )
