[gd_resource type="Resource" load_steps=3 format=2]

[ext_resource path="res://Resources/characters/characterDb.gd" type="Script" id=1]
[ext_resource path="res://Resources/rarities/Rare.tres" type="Resource" id=2]

[resource]
script = ExtResource( 1 )
char_id = 3
char_name = "Shadow Knight"
name_class = "warrior"
type = "rare"
url = "https://www.hunters.cryptoinveste.com.br/assets/images/items/sprites/warrior/common/3"
body_char = {
"armor": "res://Sprites/warrior/rare/3/armor.png",
"beard": "res://Sprites/warrior/rare/3/beard.png",
"body": "res://Sprites/warrior/rare/3/body.png",
"cape": "",
"ear": "",
"earrings": "",
"eyebrows": "res://Sprites/warrior/rare/3/eyebrows.png",
"eyes": "res://Sprites/warrior/rare/3/eyes.png",
"hair": "",
"head": "res://Sprites/warrior/rare/3/head.png",
"helmet": "res://Sprites/warrior/rare/3/helmet.png",
"mouth": "res://Sprites/warrior/rare/3/mouth.png",
"shield": "res://Sprites/warrior/rare/3/shield.png",
"weapon": "res://Sprites/warrior/rare/3/weapon.png"
}
soucer_game_type = ExtResource( 2 )
