[gd_resource type="Resource" load_steps=3 format=2]

[ext_resource path="res://Resources/characters/characterDb.gd" type="Script" id=1]
[ext_resource path="res://Resources/rarities/Epic.tres" type="Resource" id=2]

[resource]
script = ExtResource( 1 )
char_id = 1
char_name = "Cruzader Paladin"
name_class = "warrior"
type = "epic"
url = "https://www.hunters.cryptoinveste.com.br/assets/images/items/sprites/warrior/epic/1"
body_char = {
"armor": "res://Sprites/warrior/epic/1/armor.png",
"beard": "",
"body": "res://Sprites/warrior/epic/1/body.png",
"cape": "res://Sprites/warrior/epic/1/cape.png",
"ear": "",
"earrings": "",
"eyebrows": "res://Sprites/warrior/epic/1/eyebrows.png",
"eyes": "res://Sprites/warrior/epic/1/eyes.png",
"hair": "",
"head": "res://Sprites/warrior/epic/1/head.png",
"helmet": "res://Sprites/warrior/epic/1/helmet.png",
"mouth": "res://Sprites/warrior/epic/1/mouth.png",
"shield": "res://Sprites/warrior/epic/1/shield.png",
"weapon": "res://Sprites/warrior/epic/1/weapon.png"
}
soucer_game_type = ExtResource( 2 )
