[gd_resource type="Resource" load_steps=2 format=2]

[ext_resource path="res://Resources/characters/characterDb.gd" type="Script" id=1]

[resource]
script = ExtResource( 1 )
char_id = 2
char_name = "Skeleton Boss"
name_class = ""
type = ""
url = ""
body_char = {
"armor": "res://Sprites/boss/boss_02/SkeletonKing.png",
"beard": "",
"body": "res://Sprites/boss/boss_02/Skeleton1NoHandR.png",
"cape": "",
"ear": "res://Sprites/boss/boss_02/ZombieEar1.png",
"earrings": "",
"eyebrows": "",
"eyes": "res://Sprites/boss/boss_02/Skeleton2EyesGlow.png",
"hair": "",
"head": "res://Sprites/boss/boss_02/Skeleton5.png",
"helmet": "res://Sprites/boss/boss_02/SkeletonKing [FullHair].png",
"mouth": "",
"shield": "res://Sprites/boss/boss_02/SkeletonShield3.png",
"weapon": "res://Sprites/boss/boss_02/SkeletonSword.png"
}
