[gd_resource type="Resource" load_steps=2 format=2]

[ext_resource path="res://Resources/characters/characterDb.gd" type="Script" id=1]

[resource]
script = ExtResource( 1 )
char_id = 1
char_name = "Demon Boss"
name_class = ""
type = ""
url = ""
body_char = {
"armor": "res://Sprites/boss/boss_01/SkeletonArmor2.png",
"beard": "",
"body": "res://Sprites/boss/boss_01/Demon2.png",
"cape": "",
"ear": "res://Sprites/boss/boss_01/DemonEar3.png",
"earrings": "res://Sprites/boss/boss_01/GoldenEarring.png",
"eyebrows": "",
"eyes": "res://Sprites/boss/boss_01/DemonEyes3.png",
"hair": "",
"head": "res://Sprites/boss/boss_01/DemonHead2.png",
"helmet": "",
"mouth": "res://Sprites/boss/boss_01/DemonMouth2.png",
"shield": "res://Sprites/boss/boss_01/SkeletonShield2.png",
"weapon": "res://Sprites/boss/boss_01/OldBattleAxe.png"
}
